{
    "status": "OK",
    "data-availability": "available",
    "data": [
        {
            "page": 21,
            "pages": 70,
            "per_page": 10,
            "count": 10,
            "total": 692
        },
        [
            {
                "table_id": 1533,
                "title": "Persentase Penduduk Usia 7-24 Tahun Menurut Jenis Kelamin, Kelompok Umur, dan Partisipasi Sekolah, 2002-2023",
                "subj_id": 28,
                "subj": "Pendidikan",
                "updt_date": "2024-01-24 14:12:30.836421",
                "size": "0.09 MB",
                "excel": "http://www.archive.bps.go.id/website/index.php/statictable/downloadapi?data=RdAdEpv5xp8flT%2BFlU18ETRDblcvdE9XMmRVbmZMTGVrZFlsRG5Sc0o3REhhQVhEbnBLOWI0M0xGbFkzUklaS1F1UU53a0QxaXRpcHBmK0o%3D&tokenuser="
            },
            {
                "table_id": 2081,
                "title": "Angka Deforestasi (Netto) Indonesia di Dalam dan di Luar Kawasan Hutan Tahun 2013-2022 (Ha/Th)",
                "subj_id": 60,
                "subj": "Kehutanan",
                "updt_date": "2024-01-15 15:45:36",
                "size": "0.05 MB",
                "excel": "http://www.archive.bps.go.id/website/index.php/statictable/downloadapi?data=6EnTY6KRBXRRoSM95RKaE0FqNlRXS29TOWJrMU1UcnhLcWJ2TWZlVVlQVk9PSVdwTTlPalZFMW5HTjd6cGdvdnJiNXkya1J1d04vQnVncE0%3D&tokenuser="
            },
            {
                "table_id": 1559,
                "title": "Indikator Kesehatan 1995-2023",
                "subj_id": 30,
                "subj": "Kesehatan",
                "updt_date": "2024-01-08 10:23:10.556017",
                "size": "0.05 MB",
                "excel": "http://www.archive.bps.go.id/website/index.php/statictable/downloadapi?data=IQZOMvUzjv5TtuNA5t%2Bo2UIyaGVvZ0xWUXNaQzhLU3VYR1ZPcE9QRTlRclYyVllnOG9pL3ZFdmg5Z0JaTmJPSFpLT1pwUkRGTFBFL2NBWlU%3D&tokenuser="
            },
            {
                "table_id": 1973,
                "title": "Perbandingan Indeks dan Tingkat Inflasi Desember 2023 Kota-kota di Pulau Sumatera dengan Nasional (2018=100)",
                "subj_id": 3,
                "subj": "Inflasi",
                "updt_date": "2024-01-02 11:47:11",
                "size": "0.04 MB",
                "excel": "http://www.archive.bps.go.id/website/index.php/statictable/downloadapi?data=qIgXPfIOfjxqSysnTHP4Q3BrallWTzdQNTZEbm9NekZ2ZHgxamVVV25YZ1hZWjFWbFF3UDR5eVBKVlpiNVpteW1RUFV6ZmlnMGVndEFIbHg%3D&tokenuser="
            },
            {
                "table_id": 1974,
                "title": "Perbandingan Indeks dan Tingkat Inflasi Desember 2023 Kota-kota di Pulau Jawa dengan Nasional (2018=100)",
                "subj_id": 3,
                "subj": "Inflasi",
                "updt_date": "2024-01-02 11:45:08",
                "size": "0.04 MB",
                "excel": "http://www.archive.bps.go.id/website/index.php/statictable/downloadapi?data=yM31oekCfzvLZQqE6j%2Buw2FBdHdGY2FPTlBwR0VKQS8vcDk2NDFlU1U5WVpwNUdvQlh5RTJBZEFHSENyWVhoeEI5dmhoWjhINGRLNmcyMzQ%3D&tokenuser="
            },
            {
                "table_id": 1975,
                "title": "Perbandingan Indeks dan Tingkat Inflasi Desember 2023 Kota-kota di Luar Pulau Jawa dan Sumatera dengan Nasional (2018=100)",
                "subj_id": 3,
                "subj": "Inflasi",
                "updt_date": "2024-01-02 11:43:13",
                "size": "0.04 MB",
                "excel": "http://www.archive.bps.go.id/website/index.php/statictable/downloadapi?data=ImvRuw6nVht45TsNQIX8aER3cGxYTjR0M2M3bEt6M0s5K0NzL2t2OTM3RVowV1BmY2UyTCthVW1Rdk9KSmJUUVFYY0VNU2I5NExjZG55Vm4%3D&tokenuser="
            },
            {
                "table_id": 2225,
                "title": "Penduduk Berumur 15 Tahun ke Atas yang Bekerja menurut Provinsi dan Status Pekerjaan Utama, 2023",
                "subj_id": 19,
                "subj": "Upah Buruh",
                "updt_date": "2023-12-29 10:29:13.217624",
                "size": "0.04 MB",
                "excel": "http://www.archive.bps.go.id/website/index.php/statictable/downloadapi?data=FSxMmUdCxcFjScJdlS3cD3RJWFBkN2JqU0FTRG9WeDdYQ1Rrc0FvcWZlMGRtdFhNZTlpSDI1SEFKSnhEcUZSTThyN3ZXMVR3UHVrZnhNZng%3D&tokenuser="
            },
            {
                "table_id": 2230,
                "title": "Rata-rata Pendapatan bersih Berusaha Sendiri menurut Provinsi dan Pendidikan yang Ditamatkan, 2023",
                "subj_id": 19,
                "subj": "Upah Buruh",
                "updt_date": "2023-12-28 15:40:07.469774",
                "size": "0.05 MB",
                "excel": "http://www.archive.bps.go.id/website/index.php/statictable/downloadapi?data=woBfZkTWPqb88%2BEyZUw6JTVSZjdWelFUNll0Ym1CVDFiOEJYQUR4dU1TbkdWdEpVYjBpMkxpNytmMzUzUHFMelhUd0dONlAwZ3JTa09oelk%3D&tokenuser="
            },
            {
                "table_id": 2197,
                "title": "Rata-rata Pendapatan Bersih Pekerja Bebas Menurut Provinsi dan Lapangan Pekerjaan Utama, 2023",
                "subj_id": 19,
                "subj": "Upah Buruh",
                "updt_date": "2023-12-28 15:19:38.050379",
                "size": "0.04 MB",
                "excel": "http://www.archive.bps.go.id/website/index.php/statictable/downloadapi?data=%2FpacNiI2pGREaTXv6cysWkhpMFNTQUxEaWxybHBqQUJhQzY3UXlYRkgrZEh2WnlDcEFJUjl2ZlN2OFFWSEVHdWxYVFBySWJHcHMveXQyQTE%3D&tokenuser="
            },
            {
                "table_id": 2196,
                "title": "Rata-rata Pendapatan Bersih Pekerja Bebas Menurut Provinsi dan Pendidikan Tertinggi yang Ditamatkan, 2023",
                "subj_id": 19,
                "subj": "Upah Buruh",
                "updt_date": "2023-12-28 15:09:38.675197",
                "size": "0.05 MB",
                "excel": "http://www.archive.bps.go.id/website/index.php/statictable/downloadapi?data=8vaoqQV46kLJMxfPDI5Cn1ZiT3hjRitKVkVrNXZSTmVMYzFrOUlEWTVOOTNkdVpNRDI0aUU0cC9SVXJxc3Y5RHlaTFRMWGo2YUdJSFp1cng%3D&tokenuser="
            }
        ]
    ]
}