{
    "status": "OK",
    "data-availability": "available",
    "data": [
        {
            "page": 45,
            "pages": 70,
            "per_page": 10,
            "count": 10,
            "total": 692
        },
        [
            {
                "table_id": 1338,
                "title": "Posisi Utang Luar Negeri Indonesia Menurut Kelompok Peminjam (juta US$) 2005-2016",
                "subj_id": 13,
                "subj": "Keuangan",
                "updt_date": "2017-11-23 00:00:00",
                "size": "0.03 MB",
                "excel": "http://www.archive.bps.go.id/website/index.php/statictable/downloadapi?data=%2FaBs%2BwtkcIBcIq1pXLJSLUlQaHBvb2dYOXNzMmdLaGw0YkY2dUZ3ZVp1dTV2bzZsWE1JMU1Sd0NscDNZN1g5c0pwNDJmVXVHaEhRMXlxdnA%3D&tokenuser="
            },
            {
                "table_id": 1333,
                "title": "Posisi Pinjaman Investasi Bank-Bank Umum dalam Rupiah dan Valuta Asing Menurut Sektor Ekonomi (miliar rupiah), 2000 - 2016",
                "subj_id": 13,
                "subj": "Keuangan",
                "updt_date": "2017-11-23 00:00:00",
                "size": "0.04 MB",
                "excel": "http://www.archive.bps.go.id/website/index.php/statictable/downloadapi?data=C3FgpbntTFlP03hdddBpo3RkUUlhYk1CdUdVY2l2cWlvREZnangvUEtSYUNOZkJhT2FMMU1RK1R5UmVJOUp3RG1YTFNpNzcwczBjRnJDRkE%3D&tokenuser="
            },
            {
                "table_id": 1307,
                "title": "Posisi Kredit Perbankan<sup>1</sup> dalam Rupiah dan Valuta Asing Menurut Sektor Ekonomi (miliar rupiah), 2000-2016",
                "subj_id": 13,
                "subj": "Keuangan",
                "updt_date": "2017-11-23 00:00:00",
                "size": "0.03 MB",
                "excel": "http://www.archive.bps.go.id/website/index.php/statictable/downloadapi?data=81%2BXew0cDcnm7ClCgjTXFnVoMVZKL0EvTGI1b01ieUFNcERiRVJET1o5b1l0c2R6V3VSc1h4ZFJDS1pPS3ZTK1AyZWRjUWFLTWUyUEk4UEM%3D&tokenuser="
            },
            {
                "table_id": 1897,
                "title": "Transaksi Domestik Atas Dasar Harga Dasar, 2010",
                "subj_id": 105,
                "subj": "Input output",
                "updt_date": "2017-11-22 00:00:00",
                "size": "0.24 MB",
                "excel": "http://www.archive.bps.go.id/website/index.php/statictable/downloadapi?data=GONwRJGlhO3%2FI0RrF1gxAGVKOFJ4SGZXdElockRGSm9YOE5TV21qL08vN0ZQQXhmVC9pMmswMnRtTnhiS0l0OEVLNUFiOFdrY0tzM09oUk4%3D&tokenuser="
            },
            {
                "table_id": 1867,
                "title": "Pembayaran Utang Luar Negeri Pemerintah dan Bank Sentral (juta US$), 2010–2016",
                "subj_id": 13,
                "subj": "Keuangan",
                "updt_date": "2017-11-22 00:00:00",
                "size": "0.04 MB",
                "excel": "http://www.archive.bps.go.id/website/index.php/statictable/downloadapi?data=hcO%2B05ozYmLEWvKimGo2A3FmWTl1SThUZXd3TjJvMC9uczRCaGZxeTVXT1k5NzRQQi9OdDBvNmxnM0ZrcHBPaHBUaFpDNDZlNS9yQSt3dmE%3D&tokenuser="
            },
            {
                "table_id": 1819,
                "title": "Jumlah Pendapatan Setelah Pajak Menurut Golongan Rumah Tangga (miliar rupiah), 2000, 2005, dan 2008",
                "subj_id": 104,
                "subj": "Neraca Sosial Ekonomi",
                "updt_date": "2017-11-22 00:00:00",
                "size": "0.03 MB",
                "excel": "http://www.archive.bps.go.id/website/index.php/statictable/downloadapi?data=QRWXhrOY0%2B5BbEZ%2B9HsevVY0UXEwVC9tMWVEblRkUkNtQ1IyQ0FtL2lMT2NXalVtL21mQVpCQzQ4NnREMXFGcTEvMHlGWEhUazU1dkdBS3g%3D&tokenuser="
            },
            {
                "table_id": 1807,
                "title": "Realisasi Pendapatan dan Belanja Pemerintah Desa ( juta rupiah), 2012–2016",
                "subj_id": 101,
                "subj": "Pemerintahan",
                "updt_date": "2017-11-22 00:00:00",
                "size": "0.03 MB",
                "excel": "http://www.archive.bps.go.id/website/index.php/statictable/downloadapi?data=yzebbiJMC5LYGSEZf3Tyli9INHhPR3k5OFQ4ZlBCT1g5ZnVvNG5vMWhMcktwZEptU2tSam9FdStSelBxaHNyaDBJcndTTlhWalNLTENMTGE%3D&tokenuser="
            },
            {
                "table_id": 1802,
                "title": "Realisasi Pendapatan Negara (miliar rupiah), 2012–2016",
                "subj_id": 101,
                "subj": "Pemerintahan",
                "updt_date": "2017-11-22 00:00:00",
                "size": "0.03 MB",
                "excel": "http://www.archive.bps.go.id/website/index.php/statictable/downloadapi?data=Vfj5R%2BPfaBlqqos4Odu0QEVJcHMzL2dvL1JMcCtXL2c5MVpDRVp3Wll1eEhOT1ZyMmdOL2xQU1pNb1MzeGNHdVZobU9tR016UUROQzRITlQ%3D&tokenuser="
            },
            {
                "table_id": 1180,
                "title": "Ringkasan Anggaran Negara dan Realisasinya (miliar rupiah), 2007 - 2016",
                "subj_id": 101,
                "subj": "Pemerintahan",
                "updt_date": "2017-11-22 00:00:00",
                "size": "0.03 MB",
                "excel": "http://www.archive.bps.go.id/website/index.php/statictable/downloadapi?data=rKQ0BzP1risd9sFFfOuOvUVmNHJONGhRNFdhSTE3NW40b3NhbU0rNXRFajhkd212WlA4RWJhbDloMkZjeHE3WmFFcEtFUlV5RWZ6L1FOQWc%3D&tokenuser="
            },
            {
                "table_id": 1372,
                "title": "Status Kualitas Air Sungai, 2007 - 2016",
                "subj_id": 153,
                "subj": "Geografi",
                "updt_date": "2017-11-21 00:00:00",
                "size": "0.05 MB",
                "excel": "http://www.archive.bps.go.id/website/index.php/statictable/downloadapi?data=Dl5qQGpdSqeo9wShVQRmeWZZbWdqMFhoa05reExPNVM1OEpGMTRiV0FZcHIrSXJOTjhUc1FTU3N6MktlRWxPazYwUDU2Ykh2R1hMbEhZZGQ%3D&tokenuser="
            }
        ]
    ]
}