{
    "status": "OK",
    "data-availability": "available",
    "data": [
        {
            "page": 1,
            "pages": 70,
            "per_page": 10,
            "count": 10,
            "total": 692
        },
        [
            {
                "table_id": 2267,
                "title": " Neraca Fisik Tutupan Pulau Sumatra (Hektar), 2019-2023",
                "subj_id": 104,
                "subj": "Neraca Sosial Ekonomi",
                "updt_date": null,
                "size": "47 MB",
                "excel": "http://www.archive.bps.go.id/website/index.php/statictable/downloadapi?data=RmRjqCfvYN3tz14j8a2%2BV1o3RG11eHV1WHJST0xaVnB4QW0wT2o0ZWwvbkw3NVVrZ3BiQUxZSWJxWVAwODJZVk1GdjQ2OWRMV0pvbUgzVU0%3D&tokenuser="
            },
            {
                "table_id": 2266,
                "title": "Neraca Fisik Tutupan Lahan Pulau Sulawesi (Hektar), 2019-2023",
                "subj_id": 104,
                "subj": "Neraca Sosial Ekonomi",
                "updt_date": null,
                "size": "32.5 MB",
                "excel": "http://www.archive.bps.go.id/website/index.php/statictable/downloadapi?data=nsz5CRfOY%2FRFkelONoCNbVhSU0F6SUVLN2VMOW5VTkZGVDd2MkdFanR4MTJTSUl1Vnc4UU80Q1pqNXBia1VvM3dDa3RsbWJ3cGVJUm5yVE8%3D&tokenuser="
            },
            {
                "table_id": 2265,
                "title": " Neraca Fisik Tutupan Lahan Pulau Kalimantan (Hektar), 2019-2023",
                "subj_id": 104,
                "subj": "Neraca Sosial Ekonomi",
                "updt_date": null,
                "size": "32.5 MB",
                "excel": "http://www.archive.bps.go.id/website/index.php/statictable/downloadapi?data=%2F%2Byn%2FPRqn%2FN%2BOHsmdIeBRU1wM0JmejNmQVJFWTdPYkl4dEs0aGFSaGkvTDB0SnZrSk1SZHFrRThmUGNwUUgvaXZLUWpxSHNQemprWkwraFo%3D&tokenuser="
            },
            {
                "table_id": 2264,
                "title": " Neraca Fisik Tutupan Lahan Pulau Jawa (Hektar), 2019-2023",
                "subj_id": 104,
                "subj": "Neraca Sosial Ekonomi",
                "updt_date": null,
                "size": "32.5 MB",
                "excel": "http://www.archive.bps.go.id/website/index.php/statictable/downloadapi?data=B9NfqezjYXQ%2Fs5YVMoSHRHJNWm0vSGlrcHhYemR3WDJwNnJZdXFJbVdSc3NyS1doQXJVSUdqMHpkUWIyWTUwYVMyRlFPeDBlaHNENXpRTVY%3D&tokenuser="
            },
            {
                "table_id": 2263,
                "title": "Neraca Fisik Tutupan Lahan Pulau Bali - Nusa Tenggara (Hektar), 2019-2023",
                "subj_id": 104,
                "subj": "Neraca Sosial Ekonomi",
                "updt_date": null,
                "size": "33.5 MB",
                "excel": "http://www.archive.bps.go.id/website/index.php/statictable/downloadapi?data=FDBphyjdVF3G875eH%2Ba1jjlNODRRMENIR1Z5QmtkN0x3MVRTZ09lcFpDZUlMY2ozdFlhSTJkK0xabzF0Vk9zYUR0S2E5SURSYTBWb09EUzU%3D&tokenuser="
            },
            {
                "table_id": 2262,
                "title": "Neraca Fisik Tutupan Lahan Indonesia (Hektar), 2019-2023",
                "subj_id": 104,
                "subj": "Neraca Sosial Ekonomi",
                "updt_date": null,
                "size": "32.5 MB",
                "excel": "http://www.archive.bps.go.id/website/index.php/statictable/downloadapi?data=6CXfhTaVQkV8zAkY6BN1AFFnK0gyL0U4a1Zydkk0SWVHMy9ZNFZRbDhVcFJTQ0N3c09iaC9LYTc4MElnMTUzbjJ6aWJjcnI5MDZoc2szSkQ%3D&tokenuser="
            },
            {
                "table_id": 915,
                "title": " Tingkat Inflasi Harga Konsumen Nasional Tahunan (Y-on-Y) <sup>1</sup> (2022=100)",
                "subj_id": 3,
                "subj": "Inflasi",
                "updt_date": "2025-07-01 12:22:21",
                "size": "0.04 MB",
                "excel": "http://www.archive.bps.go.id/website/index.php/statictable/downloadapi?data=%2F0nECYctYvncK57rVEOzEjhFM01SamtTd0lGWVkxeU5wSi90KzQzaC9TZTVtUHRhWlNETzIySWk5YWY4eEtYQVhKTHFYeTFaKzd1YzF4eFc%3D&tokenuser="
            },
            {
                "table_id": 914,
                "title": "Tingkat Inflasi Harga Konsumen Nasional Tahun Kalender (Y-to-D) <sup>1</sup> (2022=100)",
                "subj_id": 3,
                "subj": "Inflasi",
                "updt_date": "2025-07-01 12:20:39",
                "size": "0.03 MB",
                "excel": "http://www.archive.bps.go.id/website/index.php/statictable/downloadapi?data=lAhy9oXhcMbABVS9uGWVqFZRTmRXQjJLZXpXQ25IWUhmTmlLYzBacExtZFZRYnY5QkRxN1hPWlRGZ252M3VmMWpNbWhNdUhXTktGRW1XZTk%3D&tokenuser="
            },
            {
                "table_id": 913,
                "title": "Tingkat Inflasi Harga Konsumen Nasional Bulanan (M-to-M)  <sup>1</sup> (2022=100)",
                "subj_id": 3,
                "subj": "Inflasi",
                "updt_date": "2025-07-01 12:19:18",
                "size": "0.04 MB",
                "excel": "http://www.archive.bps.go.id/website/index.php/statictable/downloadapi?data=N6HJ6HtZLOsQqdAZXt3tHFRhR09GLytKOUN0aGdGLy9wQzByV0JCWFB1ZjduYXhreEdyVHdVUlhBUGw3U3hIRWt2ZHhJWW1rMGRaVzZOU2U%3D&tokenuser="
            },
            {
                "table_id": 908,
                "title": "Inflasi Umum, Inti, Harga Yang Diatur Pemerintah, dan Barang Bergejolak Inflasi Indonesia, 2009-2025",
                "subj_id": 3,
                "subj": "Inflasi",
                "updt_date": "2025-07-01 12:16:57",
                "size": "0.05 MB",
                "excel": "http://www.archive.bps.go.id/website/index.php/statictable/downloadapi?data=DORi2phSnQxAHMgsUFIdzkM5QnlyM3F6OFdJWWQyYVhOU1FuYkFZZzRrTEFmQTJ1MlR4Y0p6VHpNUXN6bzRvT0NadHlST2lzS29GNFlvKys%3D&tokenuser="
            }
        ]
    ]
}