{
    "status": "OK",
    "data-availability": "available",
    "data": [
        {
            "page": 25,
            "pages": 70,
            "per_page": 10,
            "count": 10,
            "total": 692
        },
        [
            {
                "table_id": 2201,
                "title": "Rata-rata Pendapatan Bersih Berusaha Sendiri Menurut Provinsi dan Kelompok Umur, 2022",
                "subj_id": 19,
                "subj": "Upah Buruh",
                "updt_date": "2022-12-30 14:31:05.219419",
                "size": "0.05 MB",
                "excel": "http://www.archive.bps.go.id/website/index.php/statictable/downloadapi?data=XY4pn5YYkH5UfmZP7sfS701IRVZYNWM2eVVPdG9EWmVTd0tYRzRSbjZSM29paDl3ODViRUJ4K2RQMUpPNmEzMnVvZWhQaWR0VlZlMllOSHU%3D&tokenuser="
            },
            {
                "table_id": 2199,
                "title": "Rata-rata Pendapatan bersih Berusaha Sendiri menurut Provinsi dan Pendidikan yang Ditamatkan, 2022",
                "subj_id": 19,
                "subj": "Upah Buruh",
                "updt_date": "2022-12-30 14:24:23.255204",
                "size": "0.06 MB",
                "excel": "http://www.archive.bps.go.id/website/index.php/statictable/downloadapi?data=ZrbgWvPJKj70J9izJnLtFEl0Z21FZkNleHloSG1XWjFJTHVUbFE1YWxnL24valRrenpaWlpPNHRDUHRVdzNkMmlrdWNpU1BlMnZiOFNIOGU%3D&tokenuser="
            },
            {
                "table_id": 2195,
                "title": "Rata-rata Upah/Gaji Bersih Sebulan Buruh/Karyawan Pegawai Menurut Kelompok Umur dan Lapangan Pekerjaan Utama, 2022",
                "subj_id": 19,
                "subj": "Upah Buruh",
                "updt_date": "2022-12-30 14:07:51.008915",
                "size": "0.06 MB",
                "excel": "http://www.archive.bps.go.id/website/index.php/statictable/downloadapi?data=39BJ6KNf2sOVb0YLGdZP73FYM1piOHpIWFJybmV2QitQaFZWdWtVOWFZREpQQ0hIc2UyMEpTT0ZPL3hzeUZ2R09kRW1zRUgweStxVFVSTXA%3D&tokenuser="
            },
            {
                "table_id": 2194,
                "title": "Rata-rata Upah/Gaji Bersih Sebulan Buruh/Karyawan Pegawai Menurut Pendidikan Tertinggi dan Jenis Pekerjaan Utama, 2022",
                "subj_id": 19,
                "subj": "Upah Buruh",
                "updt_date": "2022-12-30 14:03:32.318734",
                "size": "0.04 MB",
                "excel": "http://www.archive.bps.go.id/website/index.php/statictable/downloadapi?data=7vtakirlxhZpgWTgTuERdlVXRjlYd2diN3hLcTAzUnhBZ2pLVlpLOWJUU3ZNa2FGSHIxM3dpd0RxanJ2OVRlOU5Ic1N4MFE0SVdSdXlISTY%3D&tokenuser="
            },
            {
                "table_id": 2202,
                "title": "Penduduk Berumur 15 Tahun Ke Atas yang Bekerja Menurut Provinsi dan Status Pekerjaan Utama, 2022",
                "subj_id": 19,
                "subj": "Upah Buruh",
                "updt_date": "2022-12-30 09:23:47.167738",
                "size": "0.05 MB",
                "excel": "http://www.archive.bps.go.id/website/index.php/statictable/downloadapi?data=MilMiMyv%2BtvHjuhMGU1qM21nVG5FUmo3Ui9KTzgrTDNDYmZqZVpUMlkxZzNncFgwMzY5U1ZYV2FYNXEwa2J4YWF1Z3RJK3Q3ME1CVnJqbGQ%3D&tokenuser="
            },
            {
                "table_id": 2192,
                "title": "Rata-rata Upah/Gaji Bersih sebulan Buruh/Karyawan Pegawai Menurut Pendidikan Tertinggi dan Lapangan Pekerjaan Utama, 2022",
                "subj_id": 19,
                "subj": "Upah Buruh",
                "updt_date": "2022-12-30 09:14:31.745941",
                "size": "0.06 MB",
                "excel": "http://www.archive.bps.go.id/website/index.php/statictable/downloadapi?data=fBD0gtK5SP4T%2B6VdYuFi%2BGRwUjYzeXVUbXI5UEtTMTRra0RONy9JSTdwcW1RRVJPY1o5Z2VGL0cwcDRpSm5WOHQ4NjZheEZrUkt2aVorTXA%3D&tokenuser="
            },
            {
                "table_id": 2189,
                "title": "Rata-rata Upah/Gaji Bersih Sebulan Buruh/Karyawan/Pegawai Menurut Provinsi dan Lapangan Pekerjaan Utama, 2022",
                "subj_id": 19,
                "subj": "Upah Buruh",
                "updt_date": "2022-12-30 08:59:27.897272",
                "size": "0.09 MB",
                "excel": "http://www.archive.bps.go.id/website/index.php/statictable/downloadapi?data=0fm5gNTkDfWYFJKafB0EXzc4K2tYY3NYcVExWWZ1cVRoUXJMeDRvMFR1akRQeFRpWS9tVXNBNWNnT2p4WmJleFZxc05QU1ZCSUlGQmxZZmk%3D&tokenuser="
            },
            {
                "table_id": 2207,
                "title": "Diagram Timbang Indeks Harga Produsen 2010=100",
                "subj_id": 36,
                "subj": "Harga Produsen",
                "updt_date": "2022-12-07 12:35:48.398818",
                "size": "0.03 MB",
                "excel": "http://www.archive.bps.go.id/website/index.php/statictable/downloadapi?data=7j00PV52ICQcU%2BsQbTeIpmJqbDdTOFdIbUFxSklnSTZZZnR5Wk1ManBBM0tQZHdCTXBoT2RmQ2c2MkxQeU5mNVhjVW9xRXVrcFBjeStKWjE%3D&tokenuser="
            },
            {
                "table_id": 1940,
                "title": "Persentase Rumah Tangga yang Menggunakan Lampu Hemat Energi Menurut Provinsi dan Daerah Tempat Tinggal, 2014, 2021",
                "subj_id": 152,
                "subj": "Lingkungan Hidup",
                "updt_date": "2022-10-04 11:08:25",
                "size": "0.01 MB",
                "excel": "http://www.archive.bps.go.id/website/index.php/statictable/downloadapi?data=QTEKS1FrQMmo3LXKsFpPBnJ5djNRMWhpMnZZY1EyVTlyR3BKdW0yNDRIQXR1K2kvVEluQXpzTVVhWjZ5RXhHd2hyL0RHYjJuMzE2RjNXd20%3D&tokenuser="
            },
            {
                "table_id": 1964,
                "title": "Persentase Rumah Tangga Menurut Provinsi dan Sumber Penerangan, 2015-2021",
                "subj_id": 152,
                "subj": "Lingkungan Hidup",
                "updt_date": "2022-10-04 11:05:47",
                "size": "0.02 MB",
                "excel": "http://www.archive.bps.go.id/website/index.php/statictable/downloadapi?data=WrNkLtdxiGIx0rDwQCTcXE44aHBYZk94Y0tqZlFFcmM1UTJQNmtEc2EzVFN1b0NzRnl1UEQ5cUNpdEFhZytOQTgrOEpKSUR1YU56b1YvWHU%3D&tokenuser="
            }
        ]
    ]
}