{
    "status": "OK",
    "data-availability": "available",
    "data": [
        {
            "page": 39,
            "pages": 70,
            "per_page": 10,
            "count": 10,
            "total": 692
        },
        [
            {
                "table_id": 2036,
                "title": "Penduduk Berumur 15 Tahun Ke Atas yang Bekerja Menurut Provinsi dan Status Pekerjaan Utama, 2018",
                "subj_id": 19,
                "subj": "Upah Buruh",
                "updt_date": "2019-03-06 10:02:38.367525",
                "size": "0.04 MB",
                "excel": "http://www.archive.bps.go.id/website/index.php/statictable/downloadapi?data=ofu2WEy8bro8VT%2F9I%2BcKhUFvb3FOUEdnanVMdnI3VzN5U1V1Y0F1R091L0UyUEhKTUsrNjNmd2srcnhTRDlkcVRsRTZMWEFLUy9pQUp2YnY%3D&tokenuser="
            },
            {
                "table_id": 1987,
                "title": "Rata-rata Upah/Gaji Bersih Sebulan Buruh/Karyawan/Pegawai Menurut Provinsi dan Lapangan Pekerjaan Utama di 9 Sektor (rupiah), 2017",
                "subj_id": 19,
                "subj": "Upah Buruh",
                "updt_date": "2019-03-06 09:59:06.092189",
                "size": "0.05 MB",
                "excel": "http://www.archive.bps.go.id/website/index.php/statictable/downloadapi?data=QG3aXIXNlnwLeKP%2FTNm6bHp0Nk4vejN1RDdDQ2dnT1h0eGwwdXpOUWI3RzVlNndEK1prVS9yTExTRjJsNERURUdFSDA2Y2pzamozbG9ndGk%3D&tokenuser="
            },
            {
                "table_id": 1989,
                "title": "Rata-rata Upah/Gaji Bersih Sebulan Buruh/Karyawan/Pegawai Menurut Pendidikan Tertinggi yang Ditamatkan dan Lapangan Pekerjaan Utama di 9 Sektor (rupiah), 2017",
                "subj_id": 19,
                "subj": "Upah Buruh",
                "updt_date": "2019-03-06 09:51:08.850165",
                "size": "0.04 MB",
                "excel": "http://www.archive.bps.go.id/website/index.php/statictable/downloadapi?data=%2BhoSU54zchbhXGfBrsx6W0VQUzhkNUFMcmhTNU9pZUd3WGJzL1RPR25RT05VV0lsZU5EenhDVjU1NFFzT05BRFE4ZkhDQ29YZHpwUXZWcmU%3D&tokenuser="
            },
            {
                "table_id": 1946,
                "title": "Rata-rata Upah/Gaji Bersih Sebulan Buruh/Karyawan/Pegawai Menurut Pendidikan Tertinggi yang Ditamatkan dan Jenis Pekerjaan Utama (rupiah), 2016",
                "subj_id": 19,
                "subj": "Upah Buruh",
                "updt_date": "2019-03-06 09:44:07.113396",
                "size": "0.05 MB",
                "excel": "http://www.archive.bps.go.id/website/index.php/statictable/downloadapi?data=soo7W0a6J0E5NGD6ImHVwjNiQmJFYXhiWU9UR2s4RzBQZURjNW80ODdEcHdNN0h3VE5UdWJWeGdvamttMVZBQm9UdVBsMzJaUEZoZVYyNW4%3D&tokenuser="
            },
            {
                "table_id": 1991,
                "title": "Rata-rata Upah/Gaji Bersih Sebulan Buruh/Karyawan/Pegawai Menurut Pendidikan Tertinggi yang Ditamatkan dan Jenis Pekerjaan Utama (rupiah), 2017",
                "subj_id": 19,
                "subj": "Upah Buruh",
                "updt_date": "2019-03-06 09:43:31.400923",
                "size": "0.04 MB",
                "excel": "http://www.archive.bps.go.id/website/index.php/statictable/downloadapi?data=ePHOTat2vd1ixd9640Ldz0JzZzhUQ1hwaGV4cW1pWmQwT2RHK25iUzlrdTcyMFE0T0NqdXBtMkZ6QndjZmdJMU0vTXhVay9ZMXVMYzVqUkM%3D&tokenuser="
            },
            {
                "table_id": 1992,
                "title": "Rata-rata Upah/Gaji Bersih Sebulan Buruh/Karyawan/Pegawai Menurut Kelompok Umur dan Lapangan Pekerjaan Utama di 9 Sektor (Rupiah), 2017",
                "subj_id": 19,
                "subj": "Upah Buruh",
                "updt_date": "2019-03-06 09:40:32.065097",
                "size": "0.04 MB",
                "excel": "http://www.archive.bps.go.id/website/index.php/statictable/downloadapi?data=fY4kYjd5wBkZQtKkPO8sIVFuYTFBQzEyRndVaElzQzMxQndmWkdTSzZNL1lwcFVMb2xVaDVQMk9xT1djblNlYkk4a0xIWFNhekpXSG1pa3Y%3D&tokenuser="
            },
            {
                "table_id": 1949,
                "title": "Rata-rata Upah/Gaji Bersih Sebulan Buruh/Karyawan/Pegawai Menurut Kelompok Umur dan Lapangan Pekerjaan Utama di 9 Sektor (Rupiah), 2016",
                "subj_id": 19,
                "subj": "Upah Buruh",
                "updt_date": "2019-03-06 09:40:12.425601",
                "size": "0.05 MB",
                "excel": "http://www.archive.bps.go.id/website/index.php/statictable/downloadapi?data=vxEf2RxfuzmQ%2BqX3par2%2FXlOSkxNVTNMYXBTWUlWZHM4L0I0eTNKZE5teFYwV0dDMysvWHh3VWhYVTF2cGMvVVlkbmFNbmZpMnNNaWhOYVo%3D&tokenuser="
            },
            {
                "table_id": 1994,
                "title": "Rata-rata Upah/Gaji Bersih Sebulan Buruh/Karyawan/Pegawai Menurut Kelompok Umur dan Jenis Pekerjaan (Rupiah), 2017",
                "subj_id": 19,
                "subj": "Upah Buruh",
                "updt_date": "2019-03-06 09:33:22.533823",
                "size": "0.04 MB",
                "excel": "http://www.archive.bps.go.id/website/index.php/statictable/downloadapi?data=wLd4Tads0fluEuOEhVJQam52K3ZtYTdhYmIzdXR5eFpmV241ZU1wbVVRcWd5OG92TE5HYXpwRVpjTHdaTHBOSkNWY0lrOGc1Q25UcE9pSis%3D&tokenuser="
            },
            {
                "table_id": 1957,
                "title": "Rata-rata Pendapatan Bersih Pekerja Bebas Menurut Provinsi dan Lapangan Pekerjaan Utama (ribu rupiah), 2016",
                "subj_id": 19,
                "subj": "Upah Buruh",
                "updt_date": "2019-03-06 09:28:36.345411",
                "size": "0.05 MB",
                "excel": "http://www.archive.bps.go.id/website/index.php/statictable/downloadapi?data=xZMgYeHfH7YCei5VkYVB3klaY3JYbWdielR3cmo0d1lOVmZJKzRVaXBnRHFJOTdRb1NlYmJJbjE4T0dpQk5TK2xYeUlBMGduNmlsS3pOTmM%3D&tokenuser="
            },
            {
                "table_id": 1995,
                "title": "Rata-rata Pendapatan Bersih Pekerja Bebas Menurut Provinsi dan Lapangan Pekerjaan Utama (ribu rupiah), 2017",
                "subj_id": 19,
                "subj": "Upah Buruh",
                "updt_date": "2019-03-06 09:28:11.212827",
                "size": "0.04 MB",
                "excel": "http://www.archive.bps.go.id/website/index.php/statictable/downloadapi?data=H8Zcw2aNL%2BVkbjf2KWSOT0NuTWpHYzVCQldEN25OMmxWMmFKWHoxbVNLMTRyZVBHSys1WTNQaUEvN0orWXVwRmw3SE9WZ1lpMGtGU3lrM2U%3D&tokenuser="
            }
        ]
    ]
}