{
    "status": "OK",
    "data-availability": "available",
    "data": [
        {
            "page": 24,
            "pages": 70,
            "per_page": 10,
            "count": 10,
            "total": 692
        },
        [
            {
                "table_id": 2191,
                "title": "Rata-rata Upah/Gaji Bersih Sebulan Buruh/Karyawan/Pegawai Menurut Kelompok Umur dan Jenis Pekerjaan, 2022-2023",
                "subj_id": 19,
                "subj": "Upah Buruh",
                "updt_date": "2023-06-27 14:05:09.795038",
                "size": "0.08 MB",
                "excel": "http://www.archive.bps.go.id/website/index.php/statictable/downloadapi?data=QvRPxaAzUTeUyJKpYi6fElFSaGpUTFRWMXJLbG1BYy92dW9oZkpaM3psQXBSbFg1dEZ0RzRuQXZMMEl5QW1TbkJHUnBXaGVIaG0vRmVVSG8%3D&tokenuser="
            },
            {
                "table_id": 2190,
                "title": "Rata-rata Upah/Gaji Bersih Sebulan Buruh/Karyawan/Pegawai Menurut Provinsi dan Jenis Pekerjaan Utama, 2022-2023",
                "subj_id": 19,
                "subj": "Upah Buruh",
                "updt_date": "2023-06-27 13:54:04.388299",
                "size": "0.1 MB",
                "excel": "http://www.archive.bps.go.id/website/index.php/statictable/downloadapi?data=gY8eI%2BhjQH1KMWttFHfnVTRNdnlrendkakdkZmMweFk1Y21PaWJLQzYxV0xZVFpVWXo4VW12dDQ2cWdYSEw0dWxTS3RtVk85ZWtwK2JCRnc%3D&tokenuser="
            },
            {
                "table_id": 1596,
                "title": "Rata-Rata Harga Gabah Menurut Kelompok Kualitas dan HPP di Tingkat Petani dan Tingkat Penggilingan (Rupiah/kg), 2000-2022",
                "subj_id": 36,
                "subj": "Harga Produsen",
                "updt_date": "2023-04-10 11:25:40",
                "size": "0.03 MB",
                "excel": "http://www.archive.bps.go.id/website/index.php/statictable/downloadapi?data=Z2cctBLAY9zzjzb4lUJT0zBaeDlvZE5tMDg1c252TzcwWmVjUHFoNlRGTE16SElPWTR5QnF0MjZybzdvOTBjMkQ1eEYvOFZIZ1NHTUlrU2g%3D&tokenuser="
            },
            {
                "table_id": 2210,
                "title": "Angka Kelahiran Total / Total Fertility Rate (TFR) Menurut Provinsi, 1971-2020",
                "subj_id": 12,
                "subj": "Kependudukan",
                "updt_date": "2023-03-31 10:07:15.535892",
                "size": "0.03 MB",
                "excel": "http://www.archive.bps.go.id/website/index.php/statictable/downloadapi?data=6eJGmrrraI3ltiRJ1NHnz1dTMTRXZUx1eDhFYjhwdkMzM3dkMGhNOExJVmFXY3hOeFJDeDhMSTJJNkZ3NlY5cjZsZ2M5VnltOHpmbUhTSGE%3D&tokenuser="
            },
            {
                "table_id": 2216,
                "title": "Angka Kematian Bayi/AKB (Infant Mortality Rate/IMR) Menurut Provinsi , 1971-2020",
                "subj_id": 12,
                "subj": "Kependudukan",
                "updt_date": "2023-03-31 09:35:11.065217",
                "size": "0.05 MB",
                "excel": "http://www.archive.bps.go.id/website/index.php/statictable/downloadapi?data=EPmCQV%2FuZvC%2F5LrqF1VHKDdvSm9uS1I4ZGR5OG1mRlZ6TFV1bkdVWjdpbENOWTBxalViUXNuNWExbGMzK3JBQW5COHVoNGVmU1IzcThiYmg%3D&tokenuser="
            },
            {
                "table_id": 2214,
                "title": "Angka Kelahiran menurut Kelompok Umur Ibu (Age Spesific Fertility Rate/ASFR) Menurut Provinsi 1971-2020",
                "subj_id": 12,
                "subj": "Kependudukan",
                "updt_date": "2023-03-31 08:44:54.205778",
                "size": "0.08 MB",
                "excel": "http://www.archive.bps.go.id/website/index.php/statictable/downloadapi?data=lz2v%2BHPd1DyugX8yKvQLjFJKbjB2bTFTU203b1hhRmNUUmxNSmRFUEV1R3QxclNCQnQ1MWNXdzJrYUd0VWQzOWJIdStGTHN1UWpOMm9uK1U%3D&tokenuser="
            },
            {
                "table_id": 2212,
                "title": "Angka Kelahiran Kasar (Crude Birth Rate/CBR) Menurut Provinsi, 1990-2020",
                "subj_id": 12,
                "subj": "Kependudukan",
                "updt_date": "2023-03-27 10:03:28.709695",
                "size": "0.01 MB",
                "excel": "http://www.archive.bps.go.id/website/index.php/statictable/downloadapi?data=wreWKpWe3rT5FQUtFCpEVk8zUE0yeWltQzFkRjNIdSt0SGxmNnE1aUt2NlRDeU9zcUdrWW8zaERZSFE3TVZjQUdiWG1VNzRhNmFqVUJBNDg%3D&tokenuser="
            },
            {
                "table_id": 1701,
                "title": "Jumlah Perusahaan Penangkapan Ikan Menurut Status Permodalan, 2000-2021",
                "subj_id": 56,
                "subj": "Perikanan",
                "updt_date": "2023-03-01 14:28:17.592239",
                "size": "0.02 MB",
                "excel": "http://www.archive.bps.go.id/website/index.php/statictable/downloadapi?data=YGqBVdEcDAAlL36qxjE4g3lDK0ZlQkNrMmhYMCtMV3dWWGFQRDJNYzg4ZlRzRjl5UTU1aHNLYjRrMlZvUnV4dVhqUCtJTCtVZ3NSYWduTEs%3D&tokenuser="
            },
            {
                "table_id": 1702,
                "title": "Jumlah Perusahaan Budidaya Perikanan Menurut Jenis Budidaya, 2000-2021",
                "subj_id": 56,
                "subj": "Perikanan",
                "updt_date": "2023-03-01 14:19:43.63405",
                "size": "0.02 MB",
                "excel": "http://www.archive.bps.go.id/website/index.php/statictable/downloadapi?data=eUmwrfxAtbrJ55cOhR7n83U2YkI1ZVgxUGZ0TE10SnZ1VmJNUUJlcEV0VlNNYnBodXNOemk2UHMrWW55bktEY3dmRkhFQXJXbjJ5bTRBM24%3D&tokenuser="
            },
            {
                "table_id": 1555,
                "title": "Persentase Rumah Tangga menurut Provinsi dan Sumber Penerangan Listrik PLN, 1993-2022",
                "subj_id": 29,
                "subj": "Perumahan",
                "updt_date": "2023-01-05 14:13:50",
                "size": "0.08 MB",
                "excel": "http://www.archive.bps.go.id/website/index.php/statictable/downloadapi?data=YtrZ3RcAir8JnAj1lPgXtER3bWFWVGtkV1NuUjJyOVVvM1RwaUVaMDBLTTNSZHp5aVZmVG1pTUM1aWZqSkZianZEQTlKenFDeHE3K1pTYUw%3D&tokenuser="
            }
        ]
    ]
}