{
    "status": "OK",
    "data-availability": "available",
    "data": [
        {
            "page": 32,
            "pages": 70,
            "per_page": 10,
            "count": 10,
            "total": 692
        },
        [
            {
                "table_id": 2109,
                "title": "Penduduk Berumur 15 Tahun Ke Atas yang Bekerja Menurut Provinsi dan Status Pekerjaan Utama, 2020",
                "subj_id": 19,
                "subj": "Upah Buruh",
                "updt_date": "2020-11-30 14:07:36.677266",
                "size": "0.04 MB",
                "excel": "http://www.archive.bps.go.id/website/index.php/statictable/downloadapi?data=lHLi9BlnzxsL6rFxfJTehEdUNURMR21KNGJMSXd3WDZGZk5yQ1ozbFowd2dvZ0g0N2p1M1grRktSYndaaEhQWll5bmZqNEZBVU1zR1g1ZzU%3D&tokenuser="
            },
            {
                "table_id": 2108,
                "title": "Rata-rata Pendapatan Bersih Berusaha Sendiri Menurut Provinsi dan Kelompok Umur, 2020",
                "subj_id": 19,
                "subj": "Upah Buruh",
                "updt_date": "2020-11-30 14:03:18.171987",
                "size": "0.04 MB",
                "excel": "http://www.archive.bps.go.id/website/index.php/statictable/downloadapi?data=ysXKd7jn%2Bo3kvD3l1EbF7jZHTDE1VWZiZ1dzS2YrWDVrWE8zd1NxRG4wTnZaVFMweWNuRU9nS3dURnBBUS9MSEl3ck9IbG5kdGtsMzBod3g%3D&tokenuser="
            },
            {
                "table_id": 2107,
                "title": "Rata-rata Pendapatan Bersih Berusaha Sendiri Menurut Provinsi dan Lapangan Pekerjaan Utama, 2020",
                "subj_id": 19,
                "subj": "Upah Buruh",
                "updt_date": "2020-11-30 13:34:07.6249",
                "size": "0.04 MB",
                "excel": "http://www.archive.bps.go.id/website/index.php/statictable/downloadapi?data=rhNEk2NS%2BO8V8%2F%2F6AtRXtDdwZ3VORzRiTDE2bi9pbVJjdWZieUIzbVg2aVpIRXd3QUdPekN2M3cxTWN4YWM0TEh1YkxkMmMxeFJGVmVncVM%3D&tokenuser="
            },
            {
                "table_id": 2105,
                "title": "Rata-rata Pendapatan Bersih Pekerja Bebas Menurut Provinsi dan Kelompok Umur, 2020",
                "subj_id": 19,
                "subj": "Upah Buruh",
                "updt_date": "2020-11-30 13:04:29.07975",
                "size": "0.04 MB",
                "excel": "http://www.archive.bps.go.id/website/index.php/statictable/downloadapi?data=hYAYacjiDzquu1y13%2Bq%2FbWg3aENZdVdBam94VUFRTXdFVU03QmpjYUp2Q3B1aS9IVUhNeXFkcTMyMmphVmN2WnIwQVJabVRWRlpXeUI1dkk%3D&tokenuser="
            },
            {
                "table_id": 2104,
                "title": "Rata-rata Pendapatan Bersih Pekerja Bebas Menurut Provinsi dan Lapangan Pekerjaan Utama, 2020",
                "subj_id": 19,
                "subj": "Upah Buruh",
                "updt_date": "2020-11-30 12:54:36.10657",
                "size": "0.05 MB",
                "excel": "http://www.archive.bps.go.id/website/index.php/statictable/downloadapi?data=QcTk13xeD1vG7zAt2DkiGUtYb1N1aFp4UFgvZzRPSDJhcWc5VVl1ZDJXNFNIeUc5SVpic0Y3Mzl3VXRIUmtrZDJXejlwZEtIWWNGSFVjTmY%3D&tokenuser="
            },
            {
                "table_id": 2101,
                "title": "Rata-rata Upah/Gaji Bersih Sebulan Buruh/Karyawan Pegawai Menurut Kelompok Umur dan Lapangan Pekerjaan Utama, 2020",
                "subj_id": 19,
                "subj": "Upah Buruh",
                "updt_date": "2020-11-30 12:19:15.991188",
                "size": "0.04 MB",
                "excel": "http://www.archive.bps.go.id/website/index.php/statictable/downloadapi?data=QouXRIoIHsBkXiuvOfr9MEpSNXpyZ0tsbEgxQnh0NG9HbVVxcnZsdXB4dkRFZFFjQkhZS3dndUJlMlpPYm1TRng1WjFkZmVBaGZod0M4VSs%3D&tokenuser="
            },
            {
                "table_id": 2100,
                "title": "Rata-rata Upah/Gaji Bersih Sebulan Buruh/Karyawan Pegawai Menurut Pendidikan Tertinggi dan Jenis Pekerjaan Utama, 2020",
                "subj_id": 19,
                "subj": "Upah Buruh",
                "updt_date": "2020-11-30 12:10:31.481251",
                "size": "0.03 MB",
                "excel": "http://www.archive.bps.go.id/website/index.php/statictable/downloadapi?data=KQVAtilvQflt53GE%2F34jF2lkd3pnNTdXVjc5bDBMYnM2MndYcEEzUHRpQ1lJNVRyL09xbmJ6MGpSYkVEQlUwOTZWT2ZWVGJxeG5yVk0yV2Y%3D&tokenuser="
            },
            {
                "table_id": 2099,
                "title": "Rata-rata Upah/Gaji Bersih sebulan Buruh/Karyawan Pegawai Menurut Pendidikan Tertinggi dan Jumlah Jam Kerja Utama, 2020",
                "subj_id": 19,
                "subj": "Upah Buruh",
                "updt_date": "2020-11-30 11:58:47.850665",
                "size": "0.04 MB",
                "excel": "http://www.archive.bps.go.id/website/index.php/statictable/downloadapi?data=dpRyaOwGYv%2BYseUM7JEFxWhIM3dyQTFZQ0ttYzl5SFM3dFQyU1ByOWs3aHFTZVR5T0U0WWY0YzBERjExSG5QbDFaeEdHZUZubUdrekFsNmc%3D&tokenuser="
            },
            {
                "table_id": 2098,
                "title": "Rata-rata Upah/Gaji Bersih sebulan Buruh/Karyawan Pegawai Menurut Pendidikan Tertinggi dan Lapangan Pekerjaan Utama, 2020",
                "subj_id": 19,
                "subj": "Upah Buruh",
                "updt_date": "2020-11-30 10:46:50.270976",
                "size": "0.05 MB",
                "excel": "http://www.archive.bps.go.id/website/index.php/statictable/downloadapi?data=oR4gjAV7P8CmEp2I%2FxGu5llzd0FrRS9RbEJVYitKL0xoalNjb0pYK21OL0ZhV0cxUXNDNGtGSlBLMmsvREdBd3ovMEJ6T0h1ZXk4cjNWa3I%3D&tokenuser="
            },
            {
                "table_id": 2096,
                "title": "Rata-rata Upah/Gaji Bersih Sebulan Buruh/Karyawan/Pegawai Menurut Provinsi dan Jenis Pekerjaan Utama, 2020",
                "subj_id": 19,
                "subj": "Upah Buruh",
                "updt_date": "2020-11-30 10:34:50.424167",
                "size": "0.06 MB",
                "excel": "http://www.archive.bps.go.id/website/index.php/statictable/downloadapi?data=As%2FKhO%2BxDqmAIduG222alHZjNlJUbjdWaTQrVUhFVERiU1R5M1lUdzg3MHRZSjhBVHBJejdSVEk0dEd1aXRab1Y1VTJqalJnanpkTkY4a3U%3D&tokenuser="
            }
        ]
    ]
}