{
    "status": "OK",
    "data-availability": "available",
    "data": [
        {
            "page": 6,
            "pages": 70,
            "per_page": 10,
            "count": 10,
            "total": 692
        },
        [
            {
                "table_id": 2232,
                "title": "Rata-rata Upah/Gaji Bersih Sebulan Buruh/Karyawan/Pegawai Menurut Kelompok Umur dan Jenis Pekerjaan, 2024",
                "subj_id": 19,
                "subj": "Upah Buruh",
                "updt_date": "2024-12-23 15:51:42",
                "size": "0.06 MB",
                "excel": "http://www.archive.bps.go.id/website/index.php/statictable/downloadapi?data=eWWqoN96aJpjrXGdcH6oHXFqY0FMdlZUejFXRkJhVU8wOUFtK0hoR3kwSS9CUWhBRkk1Y1h4SmJlL3FJSmQ0VGhlelhzUlgxUjdJbjRMY2g%3D&tokenuser="
            },
            {
                "table_id": 2252,
                "title": "Rata-rata Pendapatan Bersih Pekerja Bebas Menurut Provinsi dan Lapangan Pekerjaan Utama, 2024",
                "subj_id": 19,
                "subj": "Upah Buruh",
                "updt_date": "2024-12-23 15:44:41",
                "size": "0.04 MB",
                "excel": "http://www.archive.bps.go.id/website/index.php/statictable/downloadapi?data=o%2FYY1DCg4Y3DkUynI05es3BaTlB1a3BKSzhUemQzRktDZnRIMklnYm82RzRlcmNrYWo1K056SUs0ZXdrNmhtZXNMTXN5ZCs2YnkvMjMxYVQ%3D&tokenuser="
            },
            {
                "table_id": 2248,
                "title": "Rata-rata Pendapatan bersih Berusaha Sendiri menurut Provinsi dan Pendidikan yang Ditamatkan, 2024",
                "subj_id": 19,
                "subj": "Upah Buruh",
                "updt_date": "2024-12-23 15:35:51",
                "size": "0.04 MB",
                "excel": "http://www.archive.bps.go.id/website/index.php/statictable/downloadapi?data=m0EI0GpPBk2ic9EVuhQdVTNLeG52akNZQStHazJDL0RUZEdtbTh2YjBYVlFVUEp5cSsySlZldUI1U0N0NWo1MnVNUHlkcVBhOTl0MFNSTVI%3D&tokenuser="
            },
            {
                "table_id": 2246,
                "title": "Rata-rata Upah/Gaji Bersih sebulan Buruh/Karyawan Pegawai Menurut Pendidikan Tertinggi dan Jumlah Jam Kerja Utama, 2024",
                "subj_id": 19,
                "subj": "Upah Buruh",
                "updt_date": "2024-12-23 15:34:48.343476",
                "size": "0.04 MB",
                "excel": "http://www.archive.bps.go.id/website/index.php/statictable/downloadapi?data=Q5YCA0kv3hBByYLvVxj6R0dsK3RyOGxwUE9kbDEyVmhmMkcxOURlc05UQWZmd28zQ3FFc1ZXWVRLZ1pZa3VUemZDUjk0N0xMOWNjdlQ4Qmg%3D&tokenuser="
            },
            {
                "table_id": 2236,
                "title": "Rata-rata Pendapatan Bersih Pekerja Bebas Menurut Provinsi dan Kelompok Umur, 2024",
                "subj_id": 19,
                "subj": "Upah Buruh",
                "updt_date": "2024-12-23 15:24:34.714104",
                "size": "0.04 MB",
                "excel": "http://www.archive.bps.go.id/website/index.php/statictable/downloadapi?data=Wpht93C5zPGI6ku85sGQ7DUvOHEyVUNQbGc2TDNnY0wxajZxRzBZYnEvVW44LzI0eXA4V2Y5ejdJeXIvNi9tVTZBdWlpZTZyZ3VvZTVOenY%3D&tokenuser="
            },
            {
                "table_id": 2254,
                "title": "Penduduk Berumur 15 Tahun ke Atas yang Bekerja menurut Provinsi dan Status Pekerjaan Utama, 2024",
                "subj_id": 19,
                "subj": "Upah Buruh",
                "updt_date": "2024-12-23 15:21:30",
                "size": "0.04 MB",
                "excel": "http://www.archive.bps.go.id/website/index.php/statictable/downloadapi?data=aASX2et2hgLDRdTkVOt%2BMjVPVG42bmFaK1FJai9tT04vL1ZEbjZtZ0RMMzZrUmsxSmsyYzVQalc0NEhnbjMzKzRnSHpTNnJCSTFqaDgrd1o%3D&tokenuser="
            },
            {
                "table_id": 2237,
                "title": "Rata-rata Pendapatan Bersih Berusaha Sendiri Menurut Provinsi dan Lapangan Pekerjaan Utama, 2024",
                "subj_id": 19,
                "subj": "Upah Buruh",
                "updt_date": "2024-12-23 15:19:14.688027",
                "size": "0.05 MB",
                "excel": "http://www.archive.bps.go.id/website/index.php/statictable/downloadapi?data=zbIPYzeg%2BXdIi5AaN6r5u0FnMlJ5bmsyWGNJaFQwYlJ6bmR0UjA4NkdiVk5PN2tsemQwNmgySDJSTlZacFhkZDZkbCtVN2tGY29SVEJzQXY%3D&tokenuser="
            },
            {
                "table_id": 2249,
                "title": "Rata-rata Upah/Gaji Bersih Sebulan Buruh/Karyawan Pegawai Menurut Kelompok Umur dan Lapangan Pekerjaan Utama, 2024",
                "subj_id": 19,
                "subj": "Upah Buruh",
                "updt_date": "2024-12-23 15:10:49",
                "size": "0.04 MB",
                "excel": "http://www.archive.bps.go.id/website/index.php/statictable/downloadapi?data=T3BZbFOFp6KS%2BQKE0dGDslFiQ2hZN2hkNk5zYVhxSzdzMjJSQVppR2hEam9ETmFHaHZoR0ZHeWdpZzg3UHprWE5INlkwVkR6bmZ2dFkyb0k%3D&tokenuser="
            },
            {
                "table_id": 2250,
                "title": "Rata-rata Upah/Gaji Bersih Sebulan Buruh/Karyawan/Pegawai Menurut Pendidikan Tertinggi yang Ditamatkan dan Jenis Pekerjaan Utama, 2024",
                "subj_id": 19,
                "subj": "Upah Buruh",
                "updt_date": "2024-12-23 15:07:07",
                "size": "0.03 MB",
                "excel": "http://www.archive.bps.go.id/website/index.php/statictable/downloadapi?data=FZxA9QbJUVCoMRQCgS8JhU95cldWZkxRdVFVTnNINVp0cktkTWZjVkZRSjU3N3U3Mnd0RHpwS043Yzc0RzNlU3BKRHJOUUcxcy9QOHRIOTk%3D&tokenuser="
            },
            {
                "table_id": 2261,
                "title": "Rata-rata Upah/Gaji Bersih Sebulan Buruh/Karyawan/Pegawai Menurut Pendidikan Tertinggi yang Ditamatkan dan Lapangan Pekerjaan Utama di 17 Sektor (rupiah), 2024",
                "subj_id": 19,
                "subj": "Upah Buruh",
                "updt_date": "2024-12-23 15:02:08.867533",
                "size": "0.04 MB",
                "excel": "http://www.archive.bps.go.id/website/index.php/statictable/downloadapi?data=o8RHbAxMSsAA8NUARXqnZlNqcitnQ1cxYnFUa0lha3cyeTVHa1BOYW1pZVJLMTMvTkZkaE9OUUNaUWpka3JhNVpjL3FtbDZqbjFIaExUWWs%3D&tokenuser="
            }
        ]
    ]
}