{
    "status": "OK",
    "data-availability": "available",
    "data": [
        {
            "page": 44,
            "pages": 70,
            "per_page": 10,
            "count": 10,
            "total": 692
        },
        [
            {
                "table_id": 1835,
                "title": "Jumlah Sekolah, Guru, dan Murid Sekolah Menengah Pertama (SMP) di Bawah Kementrian Pendidikan dan Kebudayaan Menurut Provinsi 2011/2012-2015/2016",
                "subj_id": 28,
                "subj": "Pendidikan",
                "updt_date": "2017-11-23 00:00:00",
                "size": "0.03 MB",
                "excel": "http://www.archive.bps.go.id/website/index.php/statictable/downloadapi?data=PKZ2mDd1feG0dTWqrxdzfGxBMmlMZnZIMU0xWTRsWnRXK21BRHhoYU1FWGJnTmRrNytBeUd1ZElEeGxnYXZQR25hNkN6WkFEZFNuVFh3Zys%3D&tokenuser="
            },
            {
                "table_id": 1811,
                "title": "Jumlah Sekolah, Guru, dan Murid Madrasah Ibtidaiyah (MI) di Bawah Kementrian Agama Menurut Provinsi 2011/2012-2015/2016",
                "subj_id": 28,
                "subj": "Pendidikan",
                "updt_date": "2017-11-23 00:00:00",
                "size": "0.03 MB",
                "excel": "http://www.archive.bps.go.id/website/index.php/statictable/downloadapi?data=zu2N8TA7mgMF3oB4PGsQNGx4eXREWUlIdXM3aURNSVo2OGhBTklBSGVSQ0pMMFNtRXBhbmx6ejc0MWVTemZ3b2prRjlOTGpTZi9UR25hUnY%3D&tokenuser="
            },
            {
                "table_id": 1532,
                "title": "Persentase Penduduk Berumur 5 Tahun Ke Atas Menurut Golongan  Umur, Daerah Tempat Tinggal, dan Partisipasi Sekolah, 2000-2016",
                "subj_id": 28,
                "subj": "Pendidikan",
                "updt_date": "2017-11-23 00:00:00",
                "size": "0.06 MB",
                "excel": "http://www.archive.bps.go.id/website/index.php/statictable/downloadapi?data=raWlMxYZeM1MMOtuduHGYWRWWW5IWW9aUmU0TmRsTWtuekdKYTd6WXA4SGJrK0VydzBpck1Jc2xxUllmZVdySExQUVlyaDA0VC81UkVmK1E%3D&tokenuser="
            },
            {
                "table_id": 1487,
                "title": "Indeks Harga yang Diterima Petani (It), Indeks Harga yang Dibayar Petani (Ib), dan Nilai Tukar Petani Subsektor Perikanan (NTN) Menurut Provinsi (2007=100), 2008-2016",
                "subj_id": 22,
                "subj": "Nilai Tukar Petani",
                "updt_date": "2017-11-23 00:00:00",
                "size": "0.05 MB",
                "excel": "http://www.archive.bps.go.id/website/index.php/statictable/downloadapi?data=bNBTNpGMg66Gep5J2xgg2HcrWFZmTjBjT2owejYxdVF0MExHWWhrdUJEZmVLKzcvcHRzSDJhdVRlSGhxUHBMQXc2OG1WQ0xMOWxkc0pXa1U%3D&tokenuser="
            },
            {
                "table_id": 1486,
                "title": "Indeks Harga yang Diterima Petani (It), Indeks Harga yang Dibayar Petani (Ib), dan Nilai Tukar Petani Subsektor Peternakan (NTPT) Menurut Provinsi (2007=100), 2008-2016",
                "subj_id": 22,
                "subj": "Nilai Tukar Petani",
                "updt_date": "2017-11-23 00:00:00",
                "size": "0.05 MB",
                "excel": "http://www.archive.bps.go.id/website/index.php/statictable/downloadapi?data=VklvN8dxnPoLHOnvP7X2bGFhdTRpckFCS1EzMlI3WHlDT2FsZjRMUUowV2FhUy9MUldoUWFEZVZZd0xOVWViY0UybkZBdXQvSXEybGFydFc%3D&tokenuser="
            },
            {
                "table_id": 1485,
                "title": "Indeks Harga yang Diterima Petani (It), Indeks Harga yang Dibayar Petani (Ib), dan Nilai Tukar Petani Subsektor Tanaman Perkebunan Rakyat (NTPR) Menurut Provinsi (2007=100), 2008-2016",
                "subj_id": 22,
                "subj": "Nilai Tukar Petani",
                "updt_date": "2017-11-23 00:00:00",
                "size": "0.04 MB",
                "excel": "http://www.archive.bps.go.id/website/index.php/statictable/downloadapi?data=wEHz19OiZ9%2FGWME1XWgg0TRCcWtsWUIvRXMyZTFXVDlub1BBd2lNNGZmKzNwSlZrdGF2MlBFa2RwZ2ZIUlFQQnpSck5OTDFFb3FjOVRDL3I%3D&tokenuser="
            },
            {
                "table_id": 1484,
                "title": "Indeks Harga yang Diterima Petani (It), Indes Harga yang Dibayar Petani (Ib), dan Nilai Tukar Petani Subsektor Hortikultura (NTPH) di Indonesia (2007=100), 2008-2016",
                "subj_id": 22,
                "subj": "Nilai Tukar Petani",
                "updt_date": "2017-11-23 00:00:00",
                "size": "0.04 MB",
                "excel": "http://www.archive.bps.go.id/website/index.php/statictable/downloadapi?data=I7E%2B0ocWrQqL6E8ZSrxfejNRcXprNStydEpnQXlwN0w0SEY2VTNJMVdLeHhCK1lKTjVMczZRcnFKYVFTVDgxZERZY3dxYkhxVUtsRUJ4WUU%3D&tokenuser="
            },
            {
                "table_id": 1483,
                "title": "Indeks Harga yang Diterima Petani (It), Indeks Harga yang Dibayar Petani (Ib), dan Nilai Tukar Petani Subsektor Tanaman Pangan (NTPP) di Indonesia (2007=100), 2008-2016",
                "subj_id": 22,
                "subj": "Nilai Tukar Petani",
                "updt_date": "2017-11-23 00:00:00",
                "size": "0.05 MB",
                "excel": "http://www.archive.bps.go.id/website/index.php/statictable/downloadapi?data=M03eFXvqRwX411KpXMMAajAzQ0hGVE8rd1QxVWJOT1V2M01CR1hDRm1xOTVmRTFqaHlBaGIzMHZ2amhOWGZ4TTJXTnV2dzBLcE91cldKdFg%3D&tokenuser="
            },
            {
                "table_id": 1482,
                "title": "Indeks Harga yang Diterima Petani (It), Indeks Harga yang Dibayar Petani (Ib), dan Nilai Tukar Petani (NTP) Menurut Provinsi, 2008-2016",
                "subj_id": 22,
                "subj": "Nilai Tukar Petani",
                "updt_date": "2017-11-23 00:00:00",
                "size": "0.05 MB",
                "excel": "http://www.archive.bps.go.id/website/index.php/statictable/downloadapi?data=8XDXfpSAzmcS%2BUg2yVwMITRudmVDV1VrLzVwMlFiQnlJTVAvZzAza0pWbk91SHRyY3k5djZ1TXB6cVpGMUtIbCtNMU9EcUFOc0NheWg0Q3Y%3D&tokenuser="
            },
            {
                "table_id": 1481,
                "title": "Indeks Harga yang Diterima Petani (It), Indeks Harga yang Dibayar Petani (Ib), Nilai Tukar Petani (NTP), dan Nilai Tukar Usaha Pertanian (NTUP) Menurut Periode Bulan, 2008-2016",
                "subj_id": 22,
                "subj": "Nilai Tukar Petani",
                "updt_date": "2017-11-23 00:00:00",
                "size": "0.04 MB",
                "excel": "http://www.archive.bps.go.id/website/index.php/statictable/downloadapi?data=d4OrkGh7WOHrD55Oxtl5izVzL1JPdGdybkxnSEV4QlV6MURKVHNrL2RPdDNQT2RjZDVwellodEFVdlFEZGwrdlBrUXVGdUpadzVmK1o2Szc%3D&tokenuser="
            }
        ]
    ]
}