{
    "status": "OK",
    "data-availability": "available",
    "data": [
        {
            "page": 46,
            "pages": 70,
            "per_page": 10,
            "count": 10,
            "total": 692
        },
        [
            {
                "table_id": 1369,
                "title": "Frekuensi Gempa Berdasarkan Kedalaman dan Kekuatan Menurut Pulau di Indonesia, 2010-2016",
                "subj_id": 153,
                "subj": "Geografi",
                "updt_date": "2017-11-21 00:00:00",
                "size": "0.04 MB",
                "excel": "http://www.archive.bps.go.id/website/index.php/statictable/downloadapi?data=RxFvct7RrTrg0WKEHlrgdzJSS2p4d2R0M2FIWkVIUE9scmlLZ21IQXNKdVZ2R05vNVdwenNoaXVBM0dHeFhzU2srR0hHRHNYUVU1RTNieXI%3D&tokenuser="
            },
            {
                "table_id": 1366,
                "title": "Luas Daerah dan Jumlah Pulau Menurut Provinsi, 2002-2016",
                "subj_id": 153,
                "subj": "Geografi",
                "updt_date": "2017-11-21 00:00:00",
                "size": "0.05 MB",
                "excel": "http://www.archive.bps.go.id/website/index.php/statictable/downloadapi?data=bmuFgcPOthB96tv01MK8%2FjV3cFN0L2hqdTlWM3FURElMMDFLUFNVSEozdC9kUUtvWSs0MkJhbmFvL2ZqV1VyZGxhZXJQUVFEZDhnNWdzblk%3D&tokenuser="
            },
            {
                "table_id": 1334,
                "title": "Pinjaman Investasi Bank-Bank Umum dalam Rupiah Menurut Sektor Ekonomi (miliar rupiah), 2000 - 2016",
                "subj_id": 13,
                "subj": "Keuangan",
                "updt_date": "2017-11-21 00:00:00",
                "size": "0.04 MB",
                "excel": "http://www.archive.bps.go.id/website/index.php/statictable/downloadapi?data=ZrVr5Lx5nnqJiLsQylyZ0DcyNzZCcjYvbWhEVDF5T0hheVZ1WnBzeHFtZXhEQld2YXhzNWd5ZERDN0I4eFBFZHBsWjBZd2U1ZE9DT1pSN3A%3D&tokenuser="
            },
            {
                "table_id": 1320,
                "title": "Posisi Utang Luar Negeri Indonesia Menurut Kreditor (juta US$),  2005-2016",
                "subj_id": 13,
                "subj": "Keuangan",
                "updt_date": "2017-11-21 00:00:00",
                "size": "0.03 MB",
                "excel": "http://www.archive.bps.go.id/website/index.php/statictable/downloadapi?data=O%2BQAI9HEjAO3JeOD5cQVBUFHWVVhdVVocXYzd08vTVhhaHM3MjM0aXdGTzhNc1Z6UVBYb0VTVndMN3FoUS9Ha0JMcVB5c2dUUjJUeGhWQXQ%3D&tokenuser="
            },
            {
                "table_id": 1962,
                "title": "Tekanan Udara dan Penyinaran Matahari di Stasiun Pengamatan BMKG, 2011-2015",
                "subj_id": 151,
                "subj": "Iklim",
                "updt_date": "2017-11-20 00:00:00",
                "size": "0.04 MB",
                "excel": "http://www.archive.bps.go.id/website/index.php/statictable/downloadapi?data=d4gpGFhnEWmxpLNksGCpHjVmamxjN1NVaHVHREhZcWs4VEZETW9yUlZQbVJLMm5jQ1ZkVmp4V1k4aGdVZVVJaGlYaldQV3RLTUl4SWtTZm4%3D&tokenuser="
            },
            {
                "table_id": 1959,
                "title": "Jumlah Curah Hujan dan Jumlah Hari Hujan di Stasiun Pengamatan   BMKG, 2011-2015",
                "subj_id": 151,
                "subj": "Iklim",
                "updt_date": "2017-11-20 00:00:00",
                "size": "0.04 MB",
                "excel": "http://www.archive.bps.go.id/website/index.php/statictable/downloadapi?data=q4Xcc%2Fj45pqN6wMgK11E62NCSE54VUsrc3d5QkQ4MGRRcHNYUWptZXV3RWJMdnBaT005alB1Ny90RkNreXdBNzd4S3BtMVZDbmlWRTJFMmo%3D&tokenuser="
            },
            {
                "table_id": 1826,
                "title": "Rata-Rata Pendapatan Disposabel per Kapita Menurut Golongan Rumah Tangga (ribu rupiah), 2000, 2005, dan 2008",
                "subj_id": 104,
                "subj": "Neraca Sosial Ekonomi",
                "updt_date": "2017-11-20 00:00:00",
                "size": "0.03 MB",
                "excel": "http://www.archive.bps.go.id/website/index.php/statictable/downloadapi?data=YQl3Ltq%2BuQWwlmxDMNvOLm44WURmak5hQlRKVnVGSkEzZ3EraUZ4SzkvNHl2dDd0UVgvMlY4VTVwMG1QQ3N6QUdBc21iZHZzL0xHWWxvMVU%3D&tokenuser="
            },
            {
                "table_id": 1825,
                "title": "Nilai Pendapatan Disposabel Menurut Golongan Rumah Tangga (miliar rupiah), 2000, 2005, dan 2008",
                "subj_id": 104,
                "subj": "Neraca Sosial Ekonomi",
                "updt_date": "2017-11-20 00:00:00",
                "size": "0.03 MB",
                "excel": "http://www.archive.bps.go.id/website/index.php/statictable/downloadapi?data=U9E1p4Nx4z8bB8Jv%2BWrDc2hLWVBpcXZPSHl0VTJ5SXg3ZkprRmlzT2thVzFuVFE5eXBFRTRWSlROSTd2S1ZZd2g5Vng3NkxYby96VkM0bEI%3D&tokenuser="
            },
            {
                "table_id": 1824,
                "title": "Rata-Rata Pengeluaran Konsumsi per Kapita Menurut Golongan Rumah Tangga (ribu rupiah), 2000, 2005, dan 2008",
                "subj_id": 104,
                "subj": "Neraca Sosial Ekonomi",
                "updt_date": "2017-11-20 00:00:00",
                "size": "0.03 MB",
                "excel": "http://www.archive.bps.go.id/website/index.php/statictable/downloadapi?data=TKH%2F62zlo36GgVTZAWchDkFxTUR2Tk5pZzFQOUY1Z0JmV0hRaW8wTXBBbEIreVVvYnJGVVpIRE1nNnM3MVNqMXJkT0JrZi9sV3JjOVlHa0s%3D&tokenuser="
            },
            {
                "table_id": 1823,
                "title": "Nilai Pengeluaran Konsumsi Menurut Golongan Rumah Tangga (miliar rupiah), 2000, 2005, dan 2008",
                "subj_id": 104,
                "subj": "Neraca Sosial Ekonomi",
                "updt_date": "2017-11-20 00:00:00",
                "size": "0.04 MB",
                "excel": "http://www.archive.bps.go.id/website/index.php/statictable/downloadapi?data=dIFAiwS%2FJjAiG02N9HJMy3lNNWREUGlDWC90Si9mbkFxOHo3RzVTNFBSeUl4VFd3T2FuNi9uMERVdFA0S0Z4ZWpwRkEvNmhEYjZPaXpJSFA%3D&tokenuser="
            }
        ]
    ]
}