{
    "status": "OK",
    "data-availability": "available",
    "data": [
        {
            "page": 47,
            "pages": 70,
            "per_page": 10,
            "count": 10,
            "total": 692
        },
        [
            {
                "table_id": 1822,
                "title": "Rata-Rata Jumlah Pendapatan per Kapita Menurut Golongan Rumah Tangga (ribu rupiah), 2000, 2005, dan 2008",
                "subj_id": 104,
                "subj": "Neraca Sosial Ekonomi",
                "updt_date": "2017-11-20 00:00:00",
                "size": "0.03 MB",
                "excel": "http://www.archive.bps.go.id/website/index.php/statictable/downloadapi?data=wMkJWBdsQ4qdMfzDa3LWe1h2QzEvZVR6eTZWU2pzQ1Mwak5CRzlpSXBSVlNCcklKengzd0pIZkora0xNdzU3d3QyNnV1V0NDWGlyVHdDTXo%3D&tokenuser="
            },
            {
                "table_id": 1821,
                "title": "Jumlah Pendapatan Menurut Golongan Rumah Tangga (miliar rupiah) 2000, 2005, dan 2008",
                "subj_id": 104,
                "subj": "Neraca Sosial Ekonomi",
                "updt_date": "2017-11-20 00:00:00",
                "size": "0.03 MB",
                "excel": "http://www.archive.bps.go.id/website/index.php/statictable/downloadapi?data=VO2Fto9oRwHDTHSetse87TVTR1ljZTNVTzRLZTBRZ2pUY2NWNC9vVVNEbDcyL0UyVVlhQXZ0VCtvODdJUzluYlRnRTFTaytlNzFsRnVZZlo%3D&tokenuser="
            },
            {
                "table_id": 1820,
                "title": "Rata-Rata Pendapatan Setelah Pajak per Kapita Menurut Golongan Rumah Tangga (ribu rupiah), 2000, 2005, dan 2008",
                "subj_id": 104,
                "subj": "Neraca Sosial Ekonomi",
                "updt_date": "2017-11-20 00:00:00",
                "size": "0.03 MB",
                "excel": "http://www.archive.bps.go.id/website/index.php/statictable/downloadapi?data=NKIfiwb8xiMgJZc3uLXu%2BEZyODI1Slh0NVVqNFJhUTFrTlVGK2FVZWt1Q2pjNEk3d0NBbnBTakg3TEZ3QVhRWEY0VmdSRGorNlR0bkZ6N00%3D&tokenuser="
            },
            {
                "table_id": 1817,
                "title": "Nilai Pendapatan Kapital Menurut Golongan Rumah Tangga (miliar rupiah), 2000, 2005, dan 2008",
                "subj_id": 104,
                "subj": "Neraca Sosial Ekonomi",
                "updt_date": "2017-11-20 00:00:00",
                "size": "0.03 MB",
                "excel": "http://www.archive.bps.go.id/website/index.php/statictable/downloadapi?data=TnnUIHrjyAwWnJhPEbs8J2xETmJTMmFBc2pKMjVOelhPV3AzZlVSKzdSeTVRblQyclZyb3hiVFJXSEFwVGVOejhkY3ZZOWFRMDh5N2puNUY%3D&tokenuser="
            },
            {
                "table_id": 1816,
                "title": "Rata-Rata Upah dan Gaji per Kapita Menurut Golongan Rumah Tangga (ribu rupiah), 2000, 2005, dan 2008",
                "subj_id": 104,
                "subj": "Neraca Sosial Ekonomi",
                "updt_date": "2017-11-20 00:00:00",
                "size": "0.03 MB",
                "excel": "http://www.archive.bps.go.id/website/index.php/statictable/downloadapi?data=4iNYBQ542zrLqK4pPK1f2XdIbEpuamFIOFJBOUNxbm9YNDBuZHVZeVlXak4wTVJ0ek9LSmZqVDRqeTdhdlh5bVlaTlYrVFc5T3RrRUdZbEo%3D&tokenuser="
            },
            {
                "table_id": 1352,
                "title": "Impor Komoditi Bahan Perusak Lapisan Ozon (ton), 2000-2016",
                "subj_id": 151,
                "subj": "Iklim",
                "updt_date": "2017-11-20 00:00:00",
                "size": "0.04 MB",
                "excel": "http://www.archive.bps.go.id/website/index.php/statictable/downloadapi?data=Mh%2BRZnpNKiJBSyin56H0Xkk2Q1lFSnZUK1Z4OEQyMGpKV1V3bm1nSmhHUXlGcnB0ME0zRVc3OTU3Um9HUVZKYTFNMllFTVNCSmUyOHZWYmo%3D&tokenuser="
            },
            {
                "table_id": 1348,
                "title": "Kecepatan Angin dan Kelembaban di Stasiun Pengamatan BMKG, 2000-2010",
                "subj_id": 151,
                "subj": "Iklim",
                "updt_date": "2017-11-20 00:00:00",
                "size": "0.06 MB",
                "excel": "http://www.archive.bps.go.id/website/index.php/statictable/downloadapi?data=bfYgyGE%2FTkcQZJCi95%2F%2F4WRaYTJLSXRsa0NpWWhLKzZxUzdOdGJXMlFpaGpHd3cxbFJZcE9tWHRxM09GWVdoQm9TSHdXdkJVZmtOKzRDMHI%3D&tokenuser="
            },
            {
                "table_id": 1197,
                "title": "Indeks Daya Penyebaran dan Indeks Derajat Kepekaan Menurut  Sektor Ekonomi, 1995, 2000, 2005, dan 2010",
                "subj_id": 105,
                "subj": "Input output",
                "updt_date": "2017-11-20 00:00:00",
                "size": "0.03 MB",
                "excel": "http://www.archive.bps.go.id/website/index.php/statictable/downloadapi?data=HhUJkGsEB8aOH06xWaSx6TBrRmFaSDhoOVQrS2NUQ090cTIxdnpRZlBqMTZMQ0ErNkdBaUFyc2F6VFpyZ1R2cUt6MzVqbzgzYVFUZTNVMWk%3D&tokenuser="
            },
            {
                "table_id": 1182,
                "title": "Rekapitulasi Realisasi Penerimaan dan Pengeluaran Pemerintah Daerah Kabupaten/Kota (juta rupiah), 2006-2016",
                "subj_id": 101,
                "subj": "Pemerintahan",
                "updt_date": "2017-11-20 00:00:00",
                "size": "0.08 MB",
                "excel": "http://www.archive.bps.go.id/website/index.php/statictable/downloadapi?data=KVK4HNGn2YQZQ5cjfag020hBTFliRm5wdmZYekI4WTFQSVJIMHZadndZUC9Jd2ZjYVpDUGxxcUcvSGJvNmdFTm1wT3lYTXFGcFVOTFd4dGI%3D&tokenuser="
            },
            {
                "table_id": 1181,
                "title": "Rekapitulasi Realisasi Penerimaan dan Pengeluaran Pemerintah Daerah Provinsi (juta rupiah), 2006-2016",
                "subj_id": 101,
                "subj": "Pemerintahan",
                "updt_date": "2017-11-20 00:00:00",
                "size": "0.06 MB",
                "excel": "http://www.archive.bps.go.id/website/index.php/statictable/downloadapi?data=Kl33q9FJABUoNdwcAJuDIHhOMEtLQmZOSnhjRTZuK2hDS2xUT21vMUEzOWllL0EzYVp5aTZwdDFYZ0Y0K0dxb1ZCa0g3MGxTaFdaV1VmL0w%3D&tokenuser="
            }
        ]
    ]
}