{
    "status": "OK",
    "data-availability": "available",
    "data": [
        {
            "page": 35,
            "pages": 70,
            "per_page": 10,
            "count": 10,
            "total": 692
        },
        [
            {
                "table_id": 2063,
                "title": "Rata-rata Pendapatan Bersih Pekerja Bebas Menurut Provinsi dan Lapangan Pekerjaan Utama, 2019",
                "subj_id": 19,
                "subj": "Upah Buruh",
                "updt_date": "2020-01-08 15:30:39.5446",
                "size": "0.05 MB",
                "excel": "http://www.archive.bps.go.id/website/index.php/statictable/downloadapi?data=ItJMUFr20NGT8sLQVaQZJ1c3MWN1NFpOQ1RVa3M4cnlJaFZFUHR1aER2alc5ZEZmSEtxaWFMaGVTdFlESDhTdU9yVGFEQzFtTm11MTBTZlM%3D&tokenuser="
            },
            {
                "table_id": 2062,
                "title": "Rata-rata Pendapatan Bersih Pekerja Bebas Menurut Provinsi dan Kelompok Umur, 2019",
                "subj_id": 19,
                "subj": "Upah Buruh",
                "updt_date": "2020-01-08 15:17:49.203121",
                "size": "0.04 MB",
                "excel": "http://www.archive.bps.go.id/website/index.php/statictable/downloadapi?data=PoAOH9XEM1jJIFKyMpL8dkhpYXZXNVFVTFUxeDdyTktCM2FFVE1JTldHZGs0Q1c0R2cxRnltWHBzTjA4VW8wamFrR0hCM3F0YjJkcHhTQTE%3D&tokenuser="
            },
            {
                "table_id": 2061,
                "title": "Rata-rata Pendapatan bersih Berusaha Sendiri menurut Provinsi dan Pendidikan yang Ditamatkan, 2019",
                "subj_id": 19,
                "subj": "Upah Buruh",
                "updt_date": "2020-01-08 15:05:40.760261",
                "size": "0.04 MB",
                "excel": "http://www.archive.bps.go.id/website/index.php/statictable/downloadapi?data=mr9xXmfUyV2MQaEcxTKs32ZWd0F2SWw0OGtsbWVOSG85blhMRzBNUGgvam1qM0o4a3BnRUpPZE5UODRGc2I2VVJjTnlsZmpWNzB0eHI3STc%3D&tokenuser="
            },
            {
                "table_id": 2060,
                "title": "Rata-rata Pendapatan Bersih Berusaha Sendiri Menurut Provinsi dan Lapangan Pekerjaan Utama, 2019",
                "subj_id": 19,
                "subj": "Upah Buruh",
                "updt_date": "2020-01-08 14:43:06.380512",
                "size": "0.04 MB",
                "excel": "http://www.archive.bps.go.id/website/index.php/statictable/downloadapi?data=WOpXDxqG5Db7DqpbqIJAPjNQUEpWQ05Hc29IZ3ZpeG1LZ08zVmI5N1lUUXQ0SlQxL2xjQlBNanMxNkYweVhOU29wSnFGK09LOWdIRzcwcm8%3D&tokenuser="
            },
            {
                "table_id": 2059,
                "title": "Rata-rata Pendapatan Bersih Berusaha Sendiri Menurut Provinsi dan Kelompok Umur, 2019",
                "subj_id": 19,
                "subj": "Upah Buruh",
                "updt_date": "2020-01-08 14:22:49.626699",
                "size": "0.04 MB",
                "excel": "http://www.archive.bps.go.id/website/index.php/statictable/downloadapi?data=nkhh0qVxR1BP%2BGMpjQncDjRxSG1GcHc0bmQwQUxrak9DdGNNYU9YQWdNbFVmTVpTV2tncUNTZi9GN2I3V21Pa3Jhd1ZNOG90TU1ob0xPc0E%3D&tokenuser="
            },
            {
                "table_id": 2058,
                "title": "Penduduk Berumur 15 Tahun Ke Atas yang Bekerja Menurut Provinsi dan Status Pekerjaan Utama, 2019",
                "subj_id": 19,
                "subj": "Upah Buruh",
                "updt_date": "2020-01-08 13:34:41.316003",
                "size": "0.04 MB",
                "excel": "http://www.archive.bps.go.id/website/index.php/statictable/downloadapi?data=ZCzHQXAGRn%2BafkOn9xoY%2FUd4T1I1Nlc4bWFaZHhhRm5nYWoybGVaYVhDME5GcXBsSmp5WStmNG1LOC9XVG81WXQ0TnhHa21HMlJKaFU2K24%3D&tokenuser="
            },
            {
                "table_id": 2079,
                "title": "Proporsi Penduduk Berumur 5 Tahun ke Atas yang Menonton Acara Televisi Selama Seminggu Terakhir \tmenurut Provinsi, Tipe Daerah dan Jenis Kelamin, 2018",
                "subj_id": 27,
                "subj": "Sosial Budaya",
                "updt_date": "2019-10-17 10:19:34.918384",
                "size": "0.03 MB",
                "excel": "http://www.archive.bps.go.id/website/index.php/statictable/downloadapi?data=oZcr9mPzV8sDCQ%2F1%2BMAcD3daTHA2bnVrVllmejdDMlpEcjFzK000eGY4d3FwTnJSR2E1V3NMSUJUeEFhRkdIYksvSy9ZT2xVY01IM3VUUS8%3D&tokenuser="
            },
            {
                "table_id": 2078,
                "title": "Persentase Penduduk Berumur 5 Tahun ke Atas yang Mendengarkan Siaran Radio Selama Seminggu Terakhir menurut Provinsi, Tipe Daerah dan Jenis Kelamin, 2018",
                "subj_id": 27,
                "subj": "Sosial Budaya",
                "updt_date": "2019-10-17 10:18:19.036994",
                "size": "0.03 MB",
                "excel": "http://www.archive.bps.go.id/website/index.php/statictable/downloadapi?data=0%2BWtKePTfq%2F%2B%2B1Fdn8vt7jIrOGcrZnJiTnlTNHgyaTBBd1h4V3pVMkJ4eE04SnlzMXJPSE90Y0xmL0VrdWpsWXliallqcDNIZkdMeHZOT1Q%3D&tokenuser="
            },
            {
                "table_id": 2077,
                "title": "Proporsi Penduduk Berumur 5 Tahun ke Atas yang Membaca Surat Kabar/Majalah (Media Cetak Maupun Elektronik) Selama Seminggu Terakhir menurut Provinsi, Tipe Daerah dan Jenis Kelamin, 2018",
                "subj_id": 27,
                "subj": "Sosial Budaya",
                "updt_date": "2019-10-17 10:16:42.371389",
                "size": "0.03 MB",
                "excel": "http://www.archive.bps.go.id/website/index.php/statictable/downloadapi?data=QuxKNRgqaJpvs2ZUMFxHHUkxK2MrTTA3ZWFhb3ZvVllVVzlWYXBSZm1lNEducGU1dHI4RzZTZ1RCV3J2Z2FyYUlpRlkvNEJmUlZkRHBrbHQ%3D&tokenuser="
            },
            {
                "table_id": 2076,
                "title": "Proporsi Penduduk Berumur 5 Tahun ke Atas yang Membaca (Baik Cetak Maupun Elektronik) Selama Seminggu Terakhir menurut Provinsi, Jenis Bacaan, dan Tipe Daerah, 2018",
                "subj_id": 27,
                "subj": "Sosial Budaya",
                "updt_date": "2019-10-17 09:53:03.395907",
                "size": "0.04 MB",
                "excel": "http://www.archive.bps.go.id/website/index.php/statictable/downloadapi?data=H4C9G3EsqZFC2CQbqY4SbjA1M3p6dU5kMVFqWnVoK0J1RG9uRVJZTzFSMG50TWJtUi9EZm5MRW5GaGdJTGlGQkI4NzRwTXVVSXl5VWJIeHQ%3D&tokenuser="
            }
        ]
    ]
}